…
```r
set.seed(123)
xgboost_grid <- grid_max_entropy(xgboost_params, size = 30)
xgboost_grid
```

```
## # A tibble: 30 x 4
##    trees min_n tree_depth learn_rate
##    <int> <int>      <int>      <dbl>
##  1  1824     2          9   1.52e- 4
##  2    35    27         12   5.08e-10
##  3  1884    40          1   5.75e- 9
##  4  1957    20         14   1.45e-10
##  5  1214    37          2   6.99e- 4
##  6   778    21          7   1.92e-10
##  7   854     4          9   1.29e- 9
##  8   249     3          2   8.05e- 6
##  9  1531    39          9   3.99e-10
## 10  1731     3          2   3.03e-10
## # ... with 20 more rows
```
…
